%YAML 1.1
%TAG !u! tag:unity3d.com,2011:
--- !u!64 &4773506990182724975
MeshCollider:
  m_ObjectHideFlags: 0
  m_CorrespondingSourceObject: {fileID: 0}
  m_PrefabInstance: {fileID: 0}
  m_PrefabAsset: {fileID: 0}
  m_GameObject: {fileID: 1386511863247501385}
  m_Material: {fileID: 0}
  m_IsTrigger: 0
  m_Enabled: 1
  serializedVersion: 4
  m_Convex: 0
  m_CookingOptions: 30
  m_Mesh: {fileID: 10202, guid: 0000000000000000e000000000000000, type: 0}
--- !u!64 &5966618001680205799
MeshCollider:
  m_ObjectHideFlags: 0
  m_CorrespondingSourceObject: {fileID: 0}
  m_PrefabInstance: {fileID: 0}
  m_PrefabAsset: {fileID: 0}
  m_GameObject: {fileID: 1386511863303904594}
  m_Material: {fileID: 0}
  m_IsTrigger: 0
  m_Enabled: 1
  serializedVersion: 4
  m_Convex: 0
  m_CookingOptions: 30
  m_Mesh: {fileID: 10202, guid: 0000000000000000e000000000000000, type: 0}
--- !u!64 &2337337584097201941
MeshCollider:
  m_ObjectHideFlags: 0
  m_CorrespondingSourceObject: {fileID: 0}
  m_PrefabInstance: {fileID: 0}
  m_PrefabAsset: {fileID: 0}
  m_GameObject: {fileID: 5274311822241145116}
  m_Material: {fileID: 0}
  m_IsTrigger: 0
  m_Enabled: 1
  serializedVersion: 4
  m_Convex: 0
  m_CookingOptions: 30
  m_Mesh: {fileID: 10202, guid: 0000000000000000e000000000000000, type: 0}
--- !u!1001 &1386511864178566981
PrefabInstance:
  m_ObjectHideFlags: 0
  serializedVersion: 2
  m_Modification:
    m_TransformParent: {fileID: 0}
    m_Modifications:
    - target: {fileID: 1216421644, guid: c1f8cb47d951fa5429cf7cb85b7f6a9c, type: 3}
      propertyPath: m_StaticEditorFlags
      value: 4294967295
      objectReference: {fileID: 0}
    - target: {fileID: 1216421645, guid: c1f8cb47d951fa5429cf7cb85b7f6a9c, type: 3}
      propertyPath: m_LocalScale.x
      value: 0.1918839
      objectReference: {fileID: 0}
    - target: {fileID: 1216421645, guid: c1f8cb47d951fa5429cf7cb85b7f6a9c, type: 3}
      propertyPath: m_LocalScale.y
      value: 2.26
      objectReference: {fileID: 0}
    - target: {fileID: 1216421645, guid: c1f8cb47d951fa5429cf7cb85b7f6a9c, type: 3}
      propertyPath: m_LocalPosition.x
      value: -0.712
      objectReference: {fileID: 0}
    - target: {fileID: 1216421645, guid: c1f8cb47d951fa5429cf7cb85b7f6a9c, type: 3}
      propertyPath: m_LocalPosition.y
      value: 1.126
      objectReference: {fileID: 0}
    - target: {fileID: 1411545623, guid: c1f8cb47d951fa5429cf7cb85b7f6a9c, type: 3}
      propertyPath: m_StaticEditorFlags
      value: 4294967295
      objectReference: {fileID: 0}
    - target: {fileID: 1411545624, guid: c1f8cb47d951fa5429cf7cb85b7f6a9c, type: 3}
      propertyPath: m_LocalScale.x
      value: 0.1918839
      objectReference: {fileID: 0}
    - target: {fileID: 1411545624, guid: c1f8cb47d951fa5429cf7cb85b7f6a9c, type: 3}
      propertyPath: m_LocalScale.y
      value: 2.26
      objectReference: {fileID: 0}
    - target: {fileID: 1411545624, guid: c1f8cb47d951fa5429cf7cb85b7f6a9c, type: 3}
      propertyPath: m_LocalPosition.x
      value: 0.553
      objectReference: {fileID: 0}
    - target: {fileID: 1411545624, guid: c1f8cb47d951fa5429cf7cb85b7f6a9c, type: 3}
      propertyPath: m_LocalPosition.y
      value: 1.126
      objectReference: {fileID: 0}
    - target: {fileID: 629363734426922000, guid: c1f8cb47d951fa5429cf7cb85b7f6a9c,
        type: 3}
      propertyPath: m_RootOrder
      value: 0
      objectReference: {fileID: 0}
    - target: {fileID: 629363734426922000, guid: c1f8cb47d951fa5429cf7cb85b7f6a9c,
        type: 3}
      propertyPath: m_LocalScale.x
      value: 1
      objectReference: {fileID: 0}
    - target: {fileID: 629363734426922000, guid: c1f8cb47d951fa5429cf7cb85b7f6a9c,
        type: 3}
      propertyPath: m_LocalScale.y
      value: 1
      objectReference: {fileID: 0}
    - target: {fileID: 629363734426922000, guid: c1f8cb47d951fa5429cf7cb85b7f6a9c,
        type: 3}
      propertyPath: m_LocalScale.z
      value: 1
      objectReference: {fileID: 0}
    - target: {fileID: 629363734426922000, guid: c1f8cb47d951fa5429cf7cb85b7f6a9c,
        type: 3}
      propertyPath: m_LocalPosition.x
      value: -54.707
      objectReference: {fileID: 0}
    - target: {fileID: 629363734426922000, guid: c1f8cb47d951fa5429cf7cb85b7f6a9c,
        type: 3}
      propertyPath: m_LocalPosition.y
      value: 9.33
      objectReference: {fileID: 0}
    - target: {fileID: 629363734426922000, guid: c1f8cb47d951fa5429cf7cb85b7f6a9c,
        type: 3}
      propertyPath: m_LocalPosition.z
      value: 4.5
      objectReference: {fileID: 0}
    - target: {fileID: 629363734426922000, guid: c1f8cb47d951fa5429cf7cb85b7f6a9c,
        type: 3}
      propertyPath: m_LocalRotation.w
      value: 0.5
      objectReference: {fileID: 0}
    - target: {fileID: 629363734426922000, guid: c1f8cb47d951fa5429cf7cb85b7f6a9c,
        type: 3}
      propertyPath: m_LocalRotation.x
      value: 0.5
      objectReference: {fileID: 0}
    - target: {fileID: 629363734426922000, guid: c1f8cb47d951fa5429cf7cb85b7f6a9c,
        type: 3}
      propertyPath: m_LocalRotation.y
      value: -0.5
      objectReference: {fileID: 0}
    - target: {fileID: 629363734426922000, guid: c1f8cb47d951fa5429cf7cb85b7f6a9c,
        type: 3}
      propertyPath: m_LocalRotation.z
      value: -0.5
      objectReference: {fileID: 0}
    - target: {fileID: 629363734426922000, guid: c1f8cb47d951fa5429cf7cb85b7f6a9c,
        type: 3}
      propertyPath: m_LocalEulerAnglesHint.x
      value: 0
      objectReference: {fileID: 0}
    - target: {fileID: 629363734426922000, guid: c1f8cb47d951fa5429cf7cb85b7f6a9c,
        type: 3}
      propertyPath: m_LocalEulerAnglesHint.y
      value: -90
      objectReference: {fileID: 0}
    - target: {fileID: 629363734426922000, guid: c1f8cb47d951fa5429cf7cb85b7f6a9c,
        type: 3}
      propertyPath: m_LocalEulerAnglesHint.z
      value: -90
      objectReference: {fileID: 0}
    - target: {fileID: 629363734426922001, guid: c1f8cb47d951fa5429cf7cb85b7f6a9c,
        type: 3}
      propertyPath: m_Name
      value: Indoor_Door
      objectReference: {fileID: 0}
    - target: {fileID: 629363734426922001, guid: c1f8cb47d951fa5429cf7cb85b7f6a9c,
        type: 3}
      propertyPath: m_StaticEditorFlags
      value: 4294967295
      objectReference: {fileID: 0}
    - target: {fileID: 4659464179730308574, guid: c1f8cb47d951fa5429cf7cb85b7f6a9c,
        type: 3}
      propertyPath: m_LocalPosition.y
      value: 1.23
      objectReference: {fileID: 0}
    - target: {fileID: 4659464179730409982, guid: c1f8cb47d951fa5429cf7cb85b7f6a9c,
        type: 3}
      propertyPath: m_Name
      value: Door
      objectReference: {fileID: 0}
    - target: {fileID: 4659464179730409982, guid: c1f8cb47d951fa5429cf7cb85b7f6a9c,
        type: 3}
      propertyPath: m_StaticEditorFlags
      value: 4294967295
      objectReference: {fileID: 0}
    - target: {fileID: 4670066205747085632, guid: c1f8cb47d951fa5429cf7cb85b7f6a9c,
        type: 3}
      propertyPath: m_Name
      value: Knob
      objectReference: {fileID: 0}
    - target: {fileID: 4670066205747085632, guid: c1f8cb47d951fa5429cf7cb85b7f6a9c,
        type: 3}
      propertyPath: m_StaticEditorFlags
      value: 4294967295
      objectReference: {fileID: 0}
    - target: {fileID: 6489686623384094297, guid: c1f8cb47d951fa5429cf7cb85b7f6a9c,
        type: 3}
      propertyPath: m_Name
      value: Door
      objectReference: {fileID: 0}
    - target: {fileID: 6489686623384094297, guid: c1f8cb47d951fa5429cf7cb85b7f6a9c,
        type: 3}
      propertyPath: m_StaticEditorFlags
      value: 4294967295
      objectReference: {fileID: 0}
    m_RemovedComponents: []
  m_SourcePrefab: {fileID: 100100000, guid: c1f8cb47d951fa5429cf7cb85b7f6a9c, type: 3}
--- !u!1 &5274311822241145116 stripped
GameObject:
  m_CorrespondingSourceObject: {fileID: 6489686623384094297, guid: c1f8cb47d951fa5429cf7cb85b7f6a9c,
    type: 3}
  m_PrefabInstance: {fileID: 1386511864178566981}
  m_PrefabAsset: {fileID: 0}
--- !u!1 &1386511863247501385 stripped
GameObject:
  m_CorrespondingSourceObject: {fileID: 1216421644, guid: c1f8cb47d951fa5429cf7cb85b7f6a9c,
    type: 3}
  m_PrefabInstance: {fileID: 1386511864178566981}
  m_PrefabAsset: {fileID: 0}
--- !u!1 &1386511863303904594 stripped
GameObject:
  m_CorrespondingSourceObject: {fileID: 1411545623, guid: c1f8cb47d951fa5429cf7cb85b7f6a9c,
    type: 3}
  m_PrefabInstance: {fileID: 1386511864178566981}
  m_PrefabAsset: {fileID: 0}
