%YAML 1.1
%TAG !u! tag:unity3d.com,2011:
--- !u!1 &7057415352580156772
GameObject:
  m_ObjectHideFlags: 0
  m_CorrespondingSourceObject: {fileID: 0}
  m_PrefabInstance: {fileID: 0}
  m_PrefabAsset: {fileID: 0}
  serializedVersion: 6
  m_Component:
  - component: {fileID: 6317318858495188855}
  - component: {fileID: 3094156257162192193}
  - component: {fileID: 8776442359933016504}
  m_Layer: 0
  m_Name: M-32_Blue
  m_TagString: Untagged
  m_Icon: {fileID: 0}
  m_NavMeshLayer: 0
  m_StaticEditorFlags: 87
  m_IsActive: 1
--- !u!4 &6317318858495188855
Transform:
  m_ObjectHideFlags: 0
  m_CorrespondingSourceObject: {fileID: 0}
  m_PrefabInstance: {fileID: 0}
  m_PrefabAsset: {fileID: 0}
  m_GameObject: {fileID: 7057415352580156772}
  m_LocalRotation: {x: -0.7071068, y: 0, z: 0, w: 0.7071068}
  m_LocalPosition: {x: -22.619352, y: 0.00048601627, z: 51.901413}
  m_LocalScale: {x: 1, y: 1, z: 1}
  m_Children:
  - {fileID: 3159834956242698611}
  m_Father: {fileID: 0}
  m_RootOrder: 0
  m_LocalEulerAnglesHint: {x: -90.00001, y: 0, z: 0}
--- !u!33 &3094156257162192193
MeshFilter:
  m_ObjectHideFlags: 0
  m_CorrespondingSourceObject: {fileID: 0}
  m_PrefabInstance: {fileID: 0}
  m_PrefabAsset: {fileID: 0}
  m_GameObject: {fileID: 7057415352580156772}
  m_Mesh: {fileID: -5495902117074765545, guid: a13d6a6a5c8cbf1419055b12dbee8d3f, type: 3}
--- !u!23 &8776442359933016504
MeshRenderer:
  m_ObjectHideFlags: 0
  m_CorrespondingSourceObject: {fileID: 0}
  m_PrefabInstance: {fileID: 0}
  m_PrefabAsset: {fileID: 0}
  m_GameObject: {fileID: 7057415352580156772}
  m_Enabled: 1
  m_CastShadows: 1
  m_ReceiveShadows: 1
  m_DynamicOccludee: 1
  m_MotionVectors: 1
  m_LightProbeUsage: 1
  m_ReflectionProbeUsage: 1
  m_RayTracingMode: 2
  m_RayTraceProcedural: 0
  m_RenderingLayerMask: 1
  m_RendererPriority: 0
  m_Materials:
  - {fileID: 2100000, guid: 048f054bf86baef4d8fd2c0d409ed360, type: 2}
  - {fileID: 2100000, guid: 9012feff70773a84497f1466e7b76b43, type: 2}
  m_StaticBatchInfo:
    firstSubMesh: 0
    subMeshCount: 0
  m_StaticBatchRoot: {fileID: 0}
  m_ProbeAnchor: {fileID: 0}
  m_LightProbeVolumeOverride: {fileID: 0}
  m_ScaleInLightmap: 1
  m_ReceiveGI: 2
  m_PreserveUVs: 0
  m_IgnoreNormalsForChartDetection: 0
  m_ImportantGI: 0
  m_StitchLightmapSeams: 1
  m_SelectedEditorRenderState: 3
  m_MinimumChartSize: 4
  m_AutoUVMaxDistance: 0.5
  m_AutoUVMaxAngle: 89
  m_LightmapParameters: {fileID: 0}
  m_SortingLayerID: 0
  m_SortingLayer: 0
  m_SortingOrder: 0
  m_AdditionalVertexStreams: {fileID: 0}
--- !u!1001 &5663586530678829829
PrefabInstance:
  m_ObjectHideFlags: 0
  serializedVersion: 2
  m_Modification:
    m_TransformParent: {fileID: 6317318858495188855}
    m_Modifications:
    - target: {fileID: 2822197856076152105, guid: d82fea89a8cd2dc40977b2b16d257d88,
        type: 3}
      propertyPath: m_Name
      value: Plant_Top (1)
      objectReference: {fileID: 0}
    - target: {fileID: 2822197856076152105, guid: d82fea89a8cd2dc40977b2b16d257d88,
        type: 3}
      propertyPath: m_StaticEditorFlags
      value: 87
      objectReference: {fileID: 0}
    - target: {fileID: 7296083012175344246, guid: d82fea89a8cd2dc40977b2b16d257d88,
        type: 3}
      propertyPath: m_RootOrder
      value: 0
      objectReference: {fileID: 0}
    - target: {fileID: 7296083012175344246, guid: d82fea89a8cd2dc40977b2b16d257d88,
        type: 3}
      propertyPath: m_LocalPosition.x
      value: -0.013957977
      objectReference: {fileID: 0}
    - target: {fileID: 7296083012175344246, guid: d82fea89a8cd2dc40977b2b16d257d88,
        type: 3}
      propertyPath: m_LocalPosition.y
      value: -0.006209433
      objectReference: {fileID: 0}
    - target: {fileID: 7296083012175344246, guid: d82fea89a8cd2dc40977b2b16d257d88,
        type: 3}
      propertyPath: m_LocalPosition.z
      value: 0.6265134
      objectReference: {fileID: 0}
    - target: {fileID: 7296083012175344246, guid: d82fea89a8cd2dc40977b2b16d257d88,
        type: 3}
      propertyPath: m_LocalRotation.w
      value: 0.092295855
      objectReference: {fileID: 0}
    - target: {fileID: 7296083012175344246, guid: d82fea89a8cd2dc40977b2b16d257d88,
        type: 3}
      propertyPath: m_LocalRotation.x
      value: 0.09229587
      objectReference: {fileID: 0}
    - target: {fileID: 7296083012175344246, guid: d82fea89a8cd2dc40977b2b16d257d88,
        type: 3}
      propertyPath: m_LocalRotation.y
      value: 0.7010574
      objectReference: {fileID: 0}
    - target: {fileID: 7296083012175344246, guid: d82fea89a8cd2dc40977b2b16d257d88,
        type: 3}
      propertyPath: m_LocalRotation.z
      value: 0.7010575
      objectReference: {fileID: 0}
    - target: {fileID: 7296083012175344246, guid: d82fea89a8cd2dc40977b2b16d257d88,
        type: 3}
      propertyPath: m_LocalEulerAnglesHint.x
      value: 0
      objectReference: {fileID: 0}
    - target: {fileID: 7296083012175344246, guid: d82fea89a8cd2dc40977b2b16d257d88,
        type: 3}
      propertyPath: m_LocalEulerAnglesHint.y
      value: 165.00002
      objectReference: {fileID: 0}
    - target: {fileID: 7296083012175344246, guid: d82fea89a8cd2dc40977b2b16d257d88,
        type: 3}
      propertyPath: m_LocalEulerAnglesHint.z
      value: 0
      objectReference: {fileID: 0}
    m_RemovedComponents: []
  m_SourcePrefab: {fileID: 100100000, guid: d82fea89a8cd2dc40977b2b16d257d88, type: 3}
--- !u!4 &3159834956242698611 stripped
Transform:
  m_CorrespondingSourceObject: {fileID: 7296083012175344246, guid: d82fea89a8cd2dc40977b2b16d257d88,
    type: 3}
  m_PrefabInstance: {fileID: 5663586530678829829}
  m_PrefabAsset: {fileID: 0}
