%YAML 1.1
%TAG !u! tag:unity3d.com,2011:
--- !u!1001 &9036914104493671623
PrefabInstance:
  m_ObjectHideFlags: 0
  serializedVersion: 2
  m_Modification:
    m_TransformParent: {fileID: 0}
    m_Modifications:
    - target: {fileID: 4956068648246343933, guid: 1ddc8b0d25c72ff48af72008cfac9cd0,
        type: 3}
      propertyPath: m_Name
      value: M-38 Yellow Variant
      objectReference: {fileID: 0}
    - target: {fileID: 6700133734235917345, guid: 1ddc8b0d25c72ff48af72008cfac9cd0,
        type: 3}
      propertyPath: m_Materials.Array.data[2]
      value: 
      objectReference: {fileID: 2100000, guid: 6caef7fecbe38b247bf73a19d84788a1, type: 2}
    - target: {fileID: 8258519752909687534, guid: 1ddc8b0d25c72ff48af72008cfac9cd0,
        type: 3}
      propertyPath: m_RootOrder
      value: 0
      objectReference: {fileID: 0}
    - target: {fileID: 8258519752909687534, guid: 1ddc8b0d25c72ff48af72008cfac9cd0,
        type: 3}
      propertyPath: m_LocalPosition.x
      value: -16.194942
      objectReference: {fileID: 0}
    - target: {fileID: 8258519752909687534, guid: 1ddc8b0d25c72ff48af72008cfac9cd0,
        type: 3}
      propertyPath: m_LocalPosition.y
      value: 4.5000005
      objectReference: {fileID: 0}
    - target: {fileID: 8258519752909687534, guid: 1ddc8b0d25c72ff48af72008cfac9cd0,
        type: 3}
      propertyPath: m_LocalPosition.z
      value: 40.10473
      objectReference: {fileID: 0}
    - target: {fileID: 8258519752909687534, guid: 1ddc8b0d25c72ff48af72008cfac9cd0,
        type: 3}
      propertyPath: m_LocalRotation.w
      value: 0.7071067
      objectReference: {fileID: 0}
    - target: {fileID: 8258519752909687534, guid: 1ddc8b0d25c72ff48af72008cfac9cd0,
        type: 3}
      propertyPath: m_LocalRotation.x
      value: -0.7071068
      objectReference: {fileID: 0}
    - target: {fileID: 8258519752909687534, guid: 1ddc8b0d25c72ff48af72008cfac9cd0,
        type: 3}
      propertyPath: m_LocalRotation.y
      value: 0
      objectReference: {fileID: 0}
    - target: {fileID: 8258519752909687534, guid: 1ddc8b0d25c72ff48af72008cfac9cd0,
        type: 3}
      propertyPath: m_LocalRotation.z
      value: -0
      objectReference: {fileID: 0}
    - target: {fileID: 8258519752909687534, guid: 1ddc8b0d25c72ff48af72008cfac9cd0,
        type: 3}
      propertyPath: m_LocalEulerAnglesHint.x
      value: 0
      objectReference: {fileID: 0}
    - target: {fileID: 8258519752909687534, guid: 1ddc8b0d25c72ff48af72008cfac9cd0,
        type: 3}
      propertyPath: m_LocalEulerAnglesHint.y
      value: 0
      objectReference: {fileID: 0}
    - target: {fileID: 8258519752909687534, guid: 1ddc8b0d25c72ff48af72008cfac9cd0,
        type: 3}
      propertyPath: m_LocalEulerAnglesHint.z
      value: 0
      objectReference: {fileID: 0}
    m_RemovedComponents: []
  m_SourcePrefab: {fileID: 100100000, guid: 1ddc8b0d25c72ff48af72008cfac9cd0, type: 3}
