%YAML 1.1
%TAG !u! tag:unity3d.com,2011:
--- !u!1 &5194920474627616233
GameObject:
  m_ObjectHideFlags: 0
  m_CorrespondingSourceObject: {fileID: 0}
  m_PrefabInstance: {fileID: 0}
  m_PrefabAsset: {fileID: 0}
  serializedVersion: 6
  m_Component:
  - component: {fileID: 5194920474627616232}
  m_Layer: 0
  m_Name: Seat_Lib
  m_TagString: Untagged
  m_Icon: {fileID: 0}
  m_NavMeshLayer: 0
  m_StaticEditorFlags: 0
  m_IsActive: 1
--- !u!4 &5194920474627616232
Transform:
  m_ObjectHideFlags: 0
  m_CorrespondingSourceObject: {fileID: 0}
  m_PrefabInstance: {fileID: 0}
  m_PrefabAsset: {fileID: 0}
  m_GameObject: {fileID: 5194920474627616233}
  m_LocalRotation: {x: -0, y: -0, z: -0, w: 1}
  m_LocalPosition: {x: -38.3, y: 0.212, z: -29.64}
  m_LocalScale: {x: 1, y: 1, z: 1}
  m_Children:
  - {fileID: 2374567666802721320}
  - {fileID: 4262004514309493341}
  m_Father: {fileID: 0}
  m_RootOrder: 0
  m_LocalEulerAnglesHint: {x: 0, y: 0, z: 0}
--- !u!1001 &5194920473795802639
PrefabInstance:
  m_ObjectHideFlags: 0
  serializedVersion: 2
  m_Modification:
    m_TransformParent: {fileID: 5194920474627616232}
    m_Modifications:
    - target: {fileID: 8304002349627073618, guid: 3d28ea5bddc494342a5644e12fe2dfd2,
        type: 3}
      propertyPath: m_LocalPosition.x
      value: 0
      objectReference: {fileID: 0}
    - target: {fileID: 8304002349627073618, guid: 3d28ea5bddc494342a5644e12fe2dfd2,
        type: 3}
      propertyPath: m_LocalPosition.y
      value: 0
      objectReference: {fileID: 0}
    - target: {fileID: 8304002349627073618, guid: 3d28ea5bddc494342a5644e12fe2dfd2,
        type: 3}
      propertyPath: m_LocalPosition.z
      value: 0
      objectReference: {fileID: 0}
    - target: {fileID: 8304002349627073618, guid: 3d28ea5bddc494342a5644e12fe2dfd2,
        type: 3}
      propertyPath: m_LocalRotation.x
      value: -0
      objectReference: {fileID: 0}
    - target: {fileID: 8304002349627073618, guid: 3d28ea5bddc494342a5644e12fe2dfd2,
        type: 3}
      propertyPath: m_LocalRotation.y
      value: -0
      objectReference: {fileID: 0}
    - target: {fileID: 8304002349627073618, guid: 3d28ea5bddc494342a5644e12fe2dfd2,
        type: 3}
      propertyPath: m_LocalRotation.z
      value: -0
      objectReference: {fileID: 0}
    - target: {fileID: 8304002349627073618, guid: 3d28ea5bddc494342a5644e12fe2dfd2,
        type: 3}
      propertyPath: m_LocalRotation.w
      value: 1
      objectReference: {fileID: 0}
    - target: {fileID: 8304002349627073618, guid: 3d28ea5bddc494342a5644e12fe2dfd2,
        type: 3}
      propertyPath: m_RootOrder
      value: 1
      objectReference: {fileID: 0}
    - target: {fileID: 8304002349627073618, guid: 3d28ea5bddc494342a5644e12fe2dfd2,
        type: 3}
      propertyPath: m_LocalEulerAnglesHint.x
      value: 0
      objectReference: {fileID: 0}
    - target: {fileID: 8304002349627073618, guid: 3d28ea5bddc494342a5644e12fe2dfd2,
        type: 3}
      propertyPath: m_LocalEulerAnglesHint.y
      value: 0
      objectReference: {fileID: 0}
    - target: {fileID: 8304002349627073618, guid: 3d28ea5bddc494342a5644e12fe2dfd2,
        type: 3}
      propertyPath: m_LocalEulerAnglesHint.z
      value: 0
      objectReference: {fileID: 0}
    - target: {fileID: 8304002349627073647, guid: 3d28ea5bddc494342a5644e12fe2dfd2,
        type: 3}
      propertyPath: m_Name
      value: Dude_goes_here,rot&pos=0
      objectReference: {fileID: 0}
    - target: {fileID: 8304002349627073647, guid: 3d28ea5bddc494342a5644e12fe2dfd2,
        type: 3}
      propertyPath: m_IsActive
      value: 0
      objectReference: {fileID: 0}
    m_RemovedComponents: []
  m_SourcePrefab: {fileID: 100100000, guid: 3d28ea5bddc494342a5644e12fe2dfd2, type: 3}
--- !u!4 &4262004514309493341 stripped
Transform:
  m_CorrespondingSourceObject: {fileID: 8304002349627073618, guid: 3d28ea5bddc494342a5644e12fe2dfd2,
    type: 3}
  m_PrefabInstance: {fileID: 5194920473795802639}
  m_PrefabAsset: {fileID: 0}
--- !u!1001 &5194920474298234048
PrefabInstance:
  m_ObjectHideFlags: 0
  serializedVersion: 2
  m_Modification:
    m_TransformParent: {fileID: 5194920474627616232}
    m_Modifications:
    - target: {fileID: 6825031286680339707, guid: af7d82f4d87bc854bb6c86defcd1f111,
        type: 3}
      propertyPath: m_Name
      value: M-24
      objectReference: {fileID: 0}
    - target: {fileID: 7560479530852595432, guid: af7d82f4d87bc854bb6c86defcd1f111,
        type: 3}
      propertyPath: m_LocalPosition.x
      value: 0
      objectReference: {fileID: 0}
    - target: {fileID: 7560479530852595432, guid: af7d82f4d87bc854bb6c86defcd1f111,
        type: 3}
      propertyPath: m_LocalPosition.y
      value: -0.146
      objectReference: {fileID: 0}
    - target: {fileID: 7560479530852595432, guid: af7d82f4d87bc854bb6c86defcd1f111,
        type: 3}
      propertyPath: m_LocalPosition.z
      value: -0.16900063
      objectReference: {fileID: 0}
    - target: {fileID: 7560479530852595432, guid: af7d82f4d87bc854bb6c86defcd1f111,
        type: 3}
      propertyPath: m_LocalRotation.x
      value: -0.7071068
      objectReference: {fileID: 0}
    - target: {fileID: 7560479530852595432, guid: af7d82f4d87bc854bb6c86defcd1f111,
        type: 3}
      propertyPath: m_LocalRotation.y
      value: 0.0000000053506732
      objectReference: {fileID: 0}
    - target: {fileID: 7560479530852595432, guid: af7d82f4d87bc854bb6c86defcd1f111,
        type: 3}
      propertyPath: m_LocalRotation.z
      value: -0.0000000053506723
      objectReference: {fileID: 0}
    - target: {fileID: 7560479530852595432, guid: af7d82f4d87bc854bb6c86defcd1f111,
        type: 3}
      propertyPath: m_LocalRotation.w
      value: 0.7071067
      objectReference: {fileID: 0}
    - target: {fileID: 7560479530852595432, guid: af7d82f4d87bc854bb6c86defcd1f111,
        type: 3}
      propertyPath: m_RootOrder
      value: 0
      objectReference: {fileID: 0}
    - target: {fileID: 7560479530852595432, guid: af7d82f4d87bc854bb6c86defcd1f111,
        type: 3}
      propertyPath: m_LocalEulerAnglesHint.x
      value: 0
      objectReference: {fileID: 0}
    - target: {fileID: 7560479530852595432, guid: af7d82f4d87bc854bb6c86defcd1f111,
        type: 3}
      propertyPath: m_LocalEulerAnglesHint.y
      value: 0
      objectReference: {fileID: 0}
    - target: {fileID: 7560479530852595432, guid: af7d82f4d87bc854bb6c86defcd1f111,
        type: 3}
      propertyPath: m_LocalEulerAnglesHint.z
      value: 0
      objectReference: {fileID: 0}
    - target: {fileID: 7560479530852595432, guid: af7d82f4d87bc854bb6c86defcd1f111,
        type: 3}
      propertyPath: m_LocalScale.y
      value: 1
      objectReference: {fileID: 0}
    - target: {fileID: 7560479530852595432, guid: af7d82f4d87bc854bb6c86defcd1f111,
        type: 3}
      propertyPath: m_LocalScale.z
      value: 1
      objectReference: {fileID: 0}
    m_RemovedComponents: []
  m_SourcePrefab: {fileID: 100100000, guid: af7d82f4d87bc854bb6c86defcd1f111, type: 3}
--- !u!4 &2374567666802721320 stripped
Transform:
  m_CorrespondingSourceObject: {fileID: 7560479530852595432, guid: af7d82f4d87bc854bb6c86defcd1f111,
    type: 3}
  m_PrefabInstance: {fileID: 5194920474298234048}
  m_PrefabAsset: {fileID: 0}
